[
  {
    "config": {
      "scenario": {
        "protocol": "https",
        "hostname": "blog.juanwolf.fr",
        "maxReponseTime": 2,
        "article" : "programming/continuous-integration-django-jenkins/",
        "articleWithoutImage": "programming/how-to-make-language-router-go/",
        "category" : "video-games/",
        "tag" : "jenkins"
      },
      "usersInjected" : 100
    }
  }
]
